%YAML 1.1
%TAG !u! tag:unity3d.com,2011:
--- !u!114 &11400000
MonoBehaviour:
  m_ObjectHideFlags: 0
  m_PrefabParentObject: {fileID: 0}
  m_PrefabInternal: {fileID: 0}
  m_GameObject: {fileID: 0}
  m_Enabled: 1
  m_EditorHideFlags: 0
  m_Script: {fileID: 11500000, guid: 029d0dd4436591d4284b8ef5747cfb95, type: 3}
  m_Name: Manifest_Hope
  m_EditorClassIdentifier: 
  type: 0
  faithCost: 0
  alignmentDelta: 0
  decayRateDelta: 0
  force: 2
  radius: 5
  inspiredMinion: {fileID: 0}
  soundEffect: {fileID: 8300000, guid: b4e37dc6a9af9764fa59207d64bacad5, type: 3}
