newmtl Cog3:initialShadingGroup
illum 4
Kd 0.50 0.50 0.50
Ka 0.00 0.00 0.00
Tf 1.00 1.00 1.00
Ni 1.00
newmtl IronColumnBase:blinn4SG
illum 4
Kd 0.05 0.07 0.11
Ka 0.00 0.00 0.00
Tf 1.00 1.00 1.00
Ni 1.00
Ks 0.50 0.50 0.50
Ns 0.06
newmtl blinn1SG
illum 4
Kd 0.81 0.38 0.00
Ka 0.00 0.00 0.00
Tf 1.00 1.00 1.00
Ni 1.00
Ks 1.00 0.47 0.00
newmtl blinn2SG
illum 4
Kd 0.13 0.07 0.02
Ka 0.00 0.00 0.00
Tf 1.00 1.00 1.00
Ni 1.00
newmtl blinn3SG
illum 4
Kd 0.17 0.13 0.09
Ka 0.00 0.00 0.00
Tf 1.00 1.00 1.00
Ni 1.00
Ks 0.50 0.50 0.50
newmtl blinn4SG
illum 4
Kd 0.26 0.26 0.26
Ka 0.00 0.00 0.00
Tf 1.00 1.00 1.00
Ni 1.00
Ks 0.60 0.60 0.60
newmtl lambert2SG
illum 4
Kd 0.00 0.00 0.00
Ka 0.00 0.00 0.00
Tf 1.00 1.00 1.00
map_Kd bricks.jpg
bump bricks_Alpha.jpg -bm 1
Ni 1.00
