newmtl blinn1SG
illum 4
Kd 0.00 0.00 0.00
Ka 0.00 0.00 0.00
Tf 1.00 1.00 1.00
map_Kd ChimneyUV_txtr.jpg
bump ChimneyUV_txtrAlpha.jpg -bm 1
Ni 1.00
Ks 0.50 0.50 0.50
newmtl blinn2SG
illum 4
Kd 0.00 0.00 0.00
Ka 0.00 0.00 0.00
Tf 1.00 1.00 1.00
map_Kd OvenUV_txtr.jpg
bump OvenUV_txtrAlpha.jpg -bm 1
Ni 1.00
Ks 0.50 0.50 0.50
newmtl blinn3SG
illum 4
Kd 0.38 0.20 0.11
Ka 0.00 0.00 0.00
Tf 1.00 1.00 1.00
Ni 1.00
Ks 0.50 0.50 0.50
newmtl blinn4SG
illum 4
Kd 0.09 0.12 0.13
Ka 0.00 0.00 0.00
Tf 1.00 1.00 1.00
Ni 1.00
Ks 0.50 0.50 0.50
newmtl blinn5SG
illum 4
Kd 0.17 0.07 0.03
Ka 0.00 0.00 0.00
Tf 1.00 1.00 1.00
Ni 1.00
Ks 0.50 0.50 0.50
newmtl blinn6SG
illum 4
Kd 0.00 0.00 0.00
Ka 0.39 0.60 1.00
Tf 1.00 1.00 1.00
map_Kd DomeUV_txtr.jpg
Ni 1.00
Ks 0.00 1.00 0.95
newmtl blinn7SG
illum 4
Kd 0.00 0.00 0.00
Ka 0.00 0.00 0.00
Tf 1.00 1.00 1.00
map_Kd WindowUV_txtr.jpg
Ni 1.00
Ks 0.50 0.50 0.50
newmtl lambert2SG
illum 4
Kd 0.00 0.00 0.00
Ka 0.00 0.00 0.00
Tf 1.00 1.00 1.00
map_Kd HouseUV_txtr.jpg
Ni 1.00
newmtl lambert3SG
illum 4
Kd 0.00 0.00 0.00
Ka 0.00 0.00 0.00
Tf 1.00 1.00 1.00
map_Kd generic_rust_wall.png
bump -mm 0.367742 1 generic_rust_wall_Alpha.jpg -bm 1
Ni 1.00
newmtl lambert4SG
illum 4
Kd 0.00 0.00 0.00
Ka 0.00 0.00 0.00
Tf 1.00 1.00 1.00
map_Kd metal 01 texture.jpg
bump metal 01 texture-Alpha.jpg -bm 1
Ni 1.00
newmtl lambert5SG
illum 4
Kd 0.00 0.00 0.00
Ka 0.00 0.00 0.00
Tf 1.00 1.00 1.00
map_Kd GutterUV_txtr.jpg
bump GutterUV_txtrAlpha.jpg -bm 1
Ni 1.00
newmtl lambert6SG
illum 4
Kd 0.00 0.00 0.00
Ka 0.00 0.00 0.00
Tf 1.00 1.00 1.00
map_Kd SecondFloorUV_txtr.jpg
bump wood-texture-seamless-Alpha.jpg -bm 1
Ni 1.00
newmtl lambert7SG
illum 4
Kd 0.00 0.00 0.00
Ka 0.00 0.00 0.00
Tf 1.00 1.00 1.00
map_Kd SecondRoofUV_txtr.jpg
bump SecondRoofUV_Alpha.jpg -bm 1
Ni 1.00
newmtl lambert8SG
illum 4
Kd 0.00 0.00 0.00
Ka 0.00 0.00 0.00
Tf 1.00 1.00 1.00
map_Kd red bricks texture.jpg
bump -mm 0.496774 0.251613 red bricks texture_Alpha.jpg -bm 1
Ni 1.00
