newmtl blinn1SG
illum 4
Kd 0.18 0.18 0.18
Ka 0.00 0.00 0.00
Tf 1.00 1.00 1.00
bump metal texture-Alpha.jpg -bm 1
Ni 1.00
Ks 0.50 0.50 0.50
newmtl blinn2SG
illum 4
Kd 0.00 0.00 0.00
Ka 0.00 0.00 0.00
Tf 1.00 1.00 1.00
map_Kd HouseBarUV_txtr.jpg
Ni 1.00
Ks 0.50 0.50 0.50
newmtl blinn3SG
illum 4
Kd 0.58 0.27 0.00
Ka 0.00 0.00 0.00
Tf 1.00 1.00 1.00
Ni 1.00
Ks 0.50 0.50 0.50
newmtl blinn4SG
illum 4
Kd 0.05 0.07 0.11
Ka 0.00 0.00 0.00
Tf 1.00 1.00 1.00
Ni 1.00
Ks 0.50 0.50 0.50
newmtl blinn5SG
illum 4
Kd 0.29 0.07 0.06
Ka 0.00 0.00 0.00
Tf 1.00 1.00 1.00
Ni 1.00
Ks 0.50 0.50 0.50
newmtl blinn6SG
illum 4
Kd 0.27 0.27 0.27
Ka 0.00 0.00 0.00
Tf 1.00 1.00 1.00
Ni 1.00
Ks 0.50 0.50 0.50
newmtl blinn7SG
illum 4
Kd 0.00 0.00 0.00
Ka 0.00 0.00 0.00
Tf 1.00 1.00 1.00
map_Kd metal 01 texture.jpg
bump metal 01 texture-Alpha.jpg -bm 1
Ni 1.00
Ks 0.25 0.23 0.23
newmtl initialShadingGroup
illum 4
Kd 0.50 0.50 0.50
Ka 0.00 0.00 0.00
Tf 1.00 1.00 1.00
Ni 1.00
newmtl lambert2SG
illum 4
Kd 0.00 0.00 0.00
Ka 0.00 0.00 0.00
Tf 1.00 1.00 1.00
map_Kd ChimneyUV_txtr.jpg
bump ChimneyUV_txtrAlpha.jpg -bm 1
Ni 1.00
newmtl lambert3SG
illum 4
Kd 0.00 0.00 0.00
Ka 0.00 0.00 0.00
Tf 1.00 1.00 1.00
map_Kd generic_rust_wall.png
bump -mm 0 0.903226 generic_rust_wall_Alpha.jpg -bm 1
Ni 1.00
Ks 0.00 0.37 0.37
Ns 30.35
newmtl lambert4SG
illum 4
Kd 0.00 0.00 0.00
Ka 0.00 0.00 0.00
Tf 1.00 1.00 1.00
map_Kd HouseUV_txtr.jpg
bump -mm 1 0 HouseUV_txtrAlpha.jpg -bm 1
Ni 1.00
newmtl lambert5SG
illum 4
Kd 0.00 0.00 0.00
Ka 0.00 0.00 0.00
Tf 1.00 1.00 1.00
map_Kd WindowUV_txtr.jpg
Ni 1.00
newmtl lambert6SG
illum 4
Kd 0.00 0.00 0.00
Ka 0.00 0.00 0.00
Tf 1.00 1.00 1.00
map_Kd DoorUV_txtr.jpg
bump DoorUV_txtrAlpha.jpg -bm 1
Ni 1.00
