%YAML 1.1
%TAG !u! tag:unity3d.com,2011:
--- !u!1045 &1
EditorBuildSettings:
  m_ObjectHideFlags: 0
  serializedVersion: 2
  m_Scenes:
  - enabled: 1
    path: Assets/Scene/MainMenu.unity
    guid: db0127ce001c04244a63593b00098beb
  - enabled: 1
    path: Assets/Scene/GamePlay.unity
    guid: 83aac9f6399aa0944a62213d05db980d
